…
swdata <- gather(swdata, key, number, -movie, -release) %>% 
  arrange(release)

swdata
## # A tibble: 28 × 4
##                      movie    release        key number
##                      <chr>      <chr>      <chr>  <int>
## 1               A New Hope 1977-05-25    species      5
## 2               A New Hope 1977-05-25    planets      3
## 3               A New Hope 1977-05-25 characters     18
## 4               A New Hope 1977-05-25   vehicles      4
## 5  The Empire Strikes Back 1980-05-17    species      5
## 6  The Empire Strikes Back 1980-05-17    planets      4
## 7  The Empire Strikes Back 1980-05-17 characters     16
## 8  The Empire Strikes Back 1980-05-17   vehicles      6
## 9       Return of the Jedi 1983-05-25    species      9
## 10      Return of the Jedi 1983-05-25    planets      5
## # ... with 18 more rows
…
